{
    "client": {
        "createClient": "${self:custom.stackPrefix}-client-createClient",
        "getAllClients": "${self:custom.stackPrefix}-client-getAllClients",
        "getClientById": "${self:custom.stackPrefix}-client-getClientById",
        "deleteClient": "${self:custom.stackPrefix}-client-deleteClient",
        "updateClient": "${self:custom.stackPrefix}-client-updateClient",
        "createCard": "${self:custom.stackPrefix}-client-createCard",
        "createGift": "${self:custom.stackPrefix}-client-createGift",
        "clientCreatedTopic": "${self:custom.stackPrefix}-client-clientCreated",
        "createCardQueue": "${self:custom.stackPrefix}-client-createCardQueue",
        "createGiftQueue": "${self:custom.stackPrefix}-client-createGiftQueue",
        "updateClientQueue": "${self:custom.stackPrefix}-client-updateClientQueue",
        "clientsTable": "${self:custom.stackPrefix}-client-clients"
    },
    "purchase": {
        "createPurchase": "${self:custom.stackPrefix}-purchase-createPurchase",
        "purchasesTable": "${self:custom.stackPrefix}-purchase-purchases"
    }
}